<?xml version="1.0" standalone="no"?>
<!DOCTYPE svg PUBLIC "-//W3C//DTD SVG 20010904//EN"
 "http://www.w3.org/TR/2001/REC-SVG-20010904/DTD/svg10.dtd">
<svg version="1.0" xmlns="http://www.w3.org/2000/svg"
 width="256.000000pt" height="256.000000pt" viewBox="0 0 256.000000 256.000000"
 preserveAspectRatio="xMidYMid meet">

<g transform="translate(0.000000,256.000000) scale(0.100000,-0.100000)"
fill="#000000" stroke="none">
<path d="M0 1947 l0 -85 103 -6 c218 -14 324 -39 462 -108 157 -79 337 -218
479 -369 l76 -81 -32 -41 c-61 -79 -243 -252 -318 -304 -201 -137 -421 -211
-675 -229 l-95 -7 0 -85 0 -85 153 6 c242 9 401 48 591 145 139 70 281 176
413 308 l105 104 92 -94 c204 -208 486 -377 740 -441 98 -25 273 -45 394 -45
l72 0 0 90 0 90 -27 0 c-66 0 -264 21 -336 36 -166 33 -312 99 -452 204 -97
72 -335 307 -335 331 0 25 232 254 335 331 111 84 285 172 387 198 93 23 240
40 348 40 l80 0 0 92 0 91 -172 -6 c-329 -12 -509 -66 -740 -223 -113 -77
-164 -120 -291 -243 l-107 -105 -113 110 c-132 130 -186 175 -285 239 -181
116 -414 191 -657 210 -44 3 -106 8 -137 11 l-58 6 0 -85z"/>
</g>
</svg>
